Run multiple Large Language Model predictions against a table, or vectors • mall
…
As far as time, on my Apple M3 machine, it took about 3 minutes to process, 100 rows, containing 20 thousand words. Setting temp to 0.2 in llm_use(), made the model run a bit faster.

The package uses purrr to send each prompt individually to the LLM. But, I did try a few different ways to speed up the process, unsuccessfully:

Used furrr to send multiple requests at a time. This did not work because either the LLM or Ollama processed all my requests serially. So there was no improvement.

I also tried sending more than one row’s text at a time. This cause instability in the number of results. For example sending 5 at a time, sometimes returned 7 or 8. Even sending 2 was not stable.

This is what the new table looks like:

reviews_llm
#> # A tibble: 100 × 3
#>    review                                                    sentiment predicted
#>    <chr>                                                     <fct>     <chr>    
#>  1 "i got this as both a book and an audio file. i had wait… 1         negative 
#>  2 "this book places too much emphasis on spending money in… 1         negative 
#>  3 "remember the hollywood blacklist? the hollywood ten? i'… 2         negative 
#>  4 "while i appreciate what tipler was attempting to accomp… 1         negative 
#>  5 "the others in the series were great, and i really looke… 1         negative 
#>  6 "a few good things, but she's lost her edge and i find i… 1         negative 
#>  7 "words cannot describe how ripped off and disappointed i… 1         negative 
#>  8 "1. the persective of most writers is shaped by their ow… 1         negative 
#>  9 "i have been a huge fan of michael crichton for about 25… 1         negative 
#> 10 "i saw dr. polk on c-span a month or two ago. he was add… 2         positive 
#> # ℹ 90 more rows
…
